machine_learning_sbdr2023 - An Introduction to Machine Learning in R
…
The grid search is not exhaustive in that it does not check every combination of hyperparameters. It however gives us a good idea of what values could work better. Wider ranges require greater computation. In this example and considering the AUCs are rather narrow- lets focus on a short range.

rf_grid <- grid_regular(
  mtry(range = c(3, 7)),
  min_n(range = c(30, 35)),
  levels = 5
)

rf_grid

# A tibble: 25 × 2
    mtry min_n
   <int> <int>
 1     3    30
 2     4    30
 3     5    30
 4     6    30
 5     7    30
 6     3    31
 7     4    31
 8     5    31
 9     6    31
10     7    31
# … with 15 more rows
…
The grid search is not exhaustive in that it does not check every combination of hyperparameters. It however gives us a good idea of what values could work better. Wider ranges require greater computation. In this example and considering the AUCs are rather narrow- lets focus on a short range.

svm_grid <- grid_regular(
  cost(range = c(0, 12)),
  degree(range = c(0,1)),
  levels = 5
)

svm_grid

# A tibble: 25 × 2
    cost degree
   <dbl>  <dbl>
 1     1   0   
 2     8   0   
 3    64   0   
 4   512   0   
 5  4096   0   
 6     1   0.25
 7     8   0.25
 8    64   0.25
 9   512   0.25
10  4096   0.25
# … with 15 more rows
…
The tuning process in xgboost is technically similar to random forest- however it is not. This is due to the sheer number of parameters that require tuning with xgboost. As such a space filling design is utilised instead of the usual grid selection method. This is implemented using the grid_latin_hypercube function.

xgb_grid <- grid_latin_hypercube(
  tree_depth(),
  min_n(),
  loss_reduction(),
  sample_size = sample_prop(),
  finalize(mtry(), train_tbl),
  learn_rate(),
  size = 30
)

xgb_grid

# A tibble: 30 × 6
   tree_depth min_n loss_reduction sample_size  mtry learn_rate
        <int> <int>          <dbl>       <dbl> <int>      <dbl>
 1         13    25       3.07e- 8       0.948     3   3.89e- 4
 2         14    29       1.37e-10       0.283    13   8.42e- 9
 3         14     7       5.42e- 5       0.413     4   1.50e- 6
 4          6    25       4.80e+ 0       0.640    11   1.76e-10
 5          2    38       6.85e- 5       0.764     9   4.85e-10
 6         12    21       1.20e- 3       0.176    11   9.68e- 6
 7          7    35       1.62e- 8       0.201    10   3.58e- 5
 8          9    33       1.93e- 1       0.242    10   1.98e- 6
 9         10    22       6.45e- 7       0.711     2   3.69e- 6
10         11    32       2.73e- 4       0.453     3   1.63e- 8
# … with 20 more rows
…
